{
  "active": [
    {
      "shopId": "#01",
      "shopName": "The Company Ltd",
      "location": "United State",
      "phoneNo": "+9895012345",
      "status": "Open"
    },
    {
      "shopId": "#05",
      "shopName": "The Company Ltd",
      "location": "United State",
      "phoneNo": "+9895012345",
      "status": "Open"
    },
    {
      "shopId": "#08",
      "shopName": "The Company Ltd",
      "location": "United State",
      "phoneNo": "+9895012345",
      "status": "Open"
    },
    {
      "shopId": "#02",
      "shopName": "The Company Ltd",
      "location": "United State",
      "phoneNo": "+9895012345",
      "status": "Open"
    },
    {
      "shopId": "#09",
      "shopName": "The Company Ltd",
      "location": "United State",
      "phoneNo": "+9895012345",
      "status": "Open"
    }
  ],
  "closed": [
    {
      "shopId": "#03",
      "shopName": "The Company Ltd",
      "location": "United State",
      "phoneNo": "+9895012345",
      "status": "Closed"
    },
    {
      "shopId": "#06",
      "shopName": "The Company Ltd",
      "location": "United State",
      "phoneNo": "+9895012345",
      "status": "Closed"
    },
    {
      "shopId": "#04",
      "shopName": "The Company Ltd",
      "location": "United State",
      "phoneNo": "+9895012345",
      "status": "Closed"
    },
    {
      "shopId": "#07",
      "shopName": "The Company Ltd",
      "location": "United State",
      "phoneNo": "+9895012345",
      "status": "Closed"
    },
    {
      "shopId": "#10",
      "shopName": "The Company Ltd",
      "location": "United State",
      "phoneNo": "+9895012345",
      "status": "Closed"
    }
  ],
  "suspended": [
    {
      "shopId": "#14",
      "shopName": "The Company Ltd",
      "location": "United State",
      "phoneNo": "+9895012345",
      "status": "Suspend"
    },
    {
      "shopId": "#13",
      "shopName": "The Company Ltd",
      "location": "United State",
      "phoneNo": "+9895012345",
      "status": "Suspend"
    },
    {
      "shopId": "#15",
      "shopName": "The Company Ltd",
      "location": "United State",
      "phoneNo": "+9895012345",
      "status": "Suspend"
    },
    {
      "shopId": "#12",
      "shopName": "The Company Ltd",
      "location": "United State",
      "phoneNo": "+9895012345",
      "status": "Suspend"
    },
    {
      "shopId": "#11",
      "shopName": "The Company Ltd",
      "location": "United State",
      "phoneNo": "+9895012345",
      "status": "Suspend"
    }
  ]
}