{
  "new": [
    {
      "shopName": "The Company Ltd",
      "shopId": "Bitcoin",
      "shopType": "Diner",
      "requestDate": "19-04-2019"
    },
    {
      "shopName": "The Company Ltd",
      "shopId": "Bitcoin",
      "shopType": "POS",
      "requestDate": "19-04-2019"
    },
    {
      "shopName": "The Company Ltd",
      "shopId": "Bitcoin",
      "shopType": "POS",
      "requestDate": "19-04-2019"
    },
    {
      "shopName": "The Company Ltd",
      "shopId": "Bitcoin",
      "shopType": "Deliver",
      "requestDate": "19-04-2019"
    }
  ],
  "accepted": [
    {
      "shopName": "The Company Ltd",
      "shopId": "Bitcoin",
      "shopType": "Diner",
      "requestDate": "19-04-2019"
    },
    {
      "shopName": "The Company Ltd",
      "shopId": "Bitcoin",
      "shopType": "POS",
      "requestDate": "19-04-2019"
    }
  ],
  "denied": [
    {
      "shopName": "The Company Ltd",
      "shopId": "Bitcoin",
      "shopType": "Deliver",
      "requestDate": "19-04-2019"
    },
    {
      "shopName": "The Company Ltd",
      "shopId": "Bitcoin",
      "shopType": "POS",
      "requestDate": "19-04-2019"
    },
    {
      "shopName": "The Company Ltd",
      "shopId": "Bitcoin",
      "shopType": "Diner",
      "requestDate": "19-04-2019"
    },
    {
      "shopName": "The Company Ltd",
      "shopId": "Bitcoin",
      "shopType": "POS",
      "requestDate": "19-04-2019"
    },
    {
      "shopName": "The Company Ltd",
      "shopId": "Bitcoin",
      "shopType": "Deliver",
      "requestDate": "19-04-2019"
    },
    {
      "shopName": "The Company Ltd",
      "shopId": "Bitcoin",
      "shopType": "Diner",
      "requestDate": "19-04-2019"
    },
    {
      "shopName": "The Company Ltd",
      "shopId": "Bitcoin",
      "shopType": "Deliver",
      "requestDate": "19-04-2019"
    }
  ],
  "onHold": [
    {
      "shopName": "The Company Ltd",
      "shopId": "Bitcoin",
      "shopType": "POS",
      "requestDate": "19-04-2019"
    },
    {
      "shopName": "The Company Ltd",
      "shopId": "Bitcoin",
      "shopType": "Diner",
      "requestDate": "19-04-2019"
    },
    {
      "shopName": "The Company Ltd",
      "shopId": "Bitcoin",
      "shopType": "Deliver",
      "requestDate": "19-04-2019"
    }
  ]
}