{
  "current": [
    {
      "pid": "YO-1022510",
      "shopName": "The Company Ltd",
      "dateTime": "17:20-19.04.2019",
      "type": "Reservation",
      "reservationFor": "Birthday",
      "for": "10.02.16 - 17:20",
      "person": "230",
      "status": "Waiting"
    },
    {
      "pid": "YO-1022510",
      "shopName": "The Company Ltd",
      "dateTime": "17:20-19.04.2019",
      "type": "Reservation",
      "reservationFor": "Birthday",
      "for": "10.02.16 - 17:20",
      "person": "230",
      "status": "Waiting"
    },
    {
      "pid": "YO-1022510",
      "shopName": "The Company Ltd",
      "dateTime": "17:20-19.04.2019",
      "type": "Reservation+",
      "reservationFor": "Birthday",
      "for": "10.02.16 - 17:20",
      "person": "230",
      "status": "Waiting"
    },
    {
      "pid": "YO-1022510",
      "shopName": "The Company Ltd",
      "dateTime": "17:20-19.04.2019",
      "type": "Reservation",
      "reservationFor": "Birthday",
      "for": "10.02.16 - 17:20",
      "person": "230",
      "status": "Waiting"
    },
    {
      "pid": "YO-1022510",
      "shopName": "The Company Ltd",
      "dateTime": "17:20-19.04.2019",
      "type": "Reservation+",
      "reservationFor": "Birthday",
      "for": "10.02.16 - 17:20",
      "person": "230",
      "status": "Waiting"
    },
    {
      "pid": "YO-1022510",
      "shopName": "The Company Ltd",
      "dateTime": "17:20-19.04.2019",
      "type": "Reservation",
      "reservationFor": "Birthday",
      "for": "10.02.16 - 17:20",
      "person": "230",
      "status": "Waiting"
    }
  ],
  "onHold": [
    {
      "pid": "YO-1022510",
      "shopName": "The Company Ltd",
      "dateTime": "17:20-19.04.2019",
      "type": "Reservation",
      "reservationFor": "Birthday",
      "for": "10.02.16 - 17:20",
      "person": "230",
      "status": "On Hold"
    },
    {
      "pid": "YO-1022510",
      "shopName": "The Company Ltd",
      "dateTime": "17:20-19.04.2019",
      "type": "Reservation",
      "reservationFor": "Birthday",
      "for": "10.02.16 - 17:20",
      "person": "230",
      "status": "On Hold"
    },
    {
      "pid": "YO-1022510",
      "shopName": "The Company Ltd",
      "dateTime": "17:20-19.04.2019",
      "type": "Reservation+",
      "reservationFor": "Birthday",
      "for": "10.02.16 - 17:20",
      "person": "230",
      "status": "On Hold"
    },
    {
      "pid": "YO-1022510",
      "shopName": "The Company Ltd",
      "dateTime": "17:20-19.04.2019",
      "type": "Reservation",
      "reservationFor": "Birthday",
      "for": "10.02.16 - 17:20",
      "person": "230",
      "status": "On Hold"
    }
  ],
  "denied": [
    {
      "pid": "YO-1022510",
      "shopName": "The Company Ltd",
      "dateTime": "17:20-19.04.2019",
      "type": "Reservation",
      "reservationFor": "Birthday",
      "for": "10.02.16 - 17:20",
      "person": "230",
      "status": "Denied"
    },
    {
      "pid": "YO-1022510",
      "shopName": "The Company Ltd",
      "dateTime": "17:20-19.04.2019",
      "type": "Reservation",
      "reservationFor": "Birthday",
      "for": "10.02.16 - 17:20",
      "person": "230",
      "status": "Denied"
    },
    {
      "pid": "YO-1022510",
      "shopName": "The Company Ltd",
      "dateTime": "17:20-19.04.2019",
      "type": "Reservation+",
      "reservationFor": "Birthday",
      "for": "10.02.16 - 17:20",
      "person": "230",
      "status": "Denied"
    },
    {
      "pid": "YO-1022510",
      "shopName": "The Company Ltd",
      "dateTime": "17:20-19.04.2019",
      "type": "Reservation+",
      "reservationFor": "Birthday",
      "for": "10.02.16 - 17:20",
      "person": "230",
      "status": "Denied"
    },
    {
      "pid": "YO-1022510",
      "shopName": "The Company Ltd",
      "dateTime": "17:20-19.04.2019",
      "type": "Reservation",
      "reservationFor": "Birthday",
      "for": "10.02.16 - 17:20",
      "person": "230",
      "status": "Denied"
    },
    {
      "pid": "YO-1022510",
      "shopName": "The Company Ltd",
      "dateTime": "17:20-19.04.2019",
      "type": "Reservation+",
      "reservationFor": "Birthday",
      "for": "10.02.16 - 17:20",
      "person": "230",
      "status": "Denied"
    },
    {
      "pid": "YO-1022510",
      "shopName": "The Company Ltd",
      "dateTime": "17:20-19.04.2019",
      "type": "Reservation",
      "reservationFor": "Birthday",
      "for": "10.02.16 - 17:20",
      "person": "230",
      "status": "Denied"
    },
    {
      "pid": "YO-1022510",
      "shopName": "The Company Ltd",
      "dateTime": "17:20-19.04.2019",
      "type": "Reservation+",
      "reservationFor": "Birthday",
      "for": "10.02.16 - 17:20",
      "person": "230",
      "status": "Denied"
    }
  ]
}