{
  "datas": [
    {
      "name": "John Kribo",
      "number": 12008
    },
    {
      "name": "John Kribo",
      "number": 2122
    },
    {
      "name": "John Kribo",
      "number": 78524
    },
    {
      "name": "John Kribo",
      "number": 31854
    }
  ]
}