{
  "active": [
    {
      "id": "DL-1022510",
      "title": "Offer1",
      "shopName": "The Company Ltd",
      "startDate": "20-19-17",
      "endDate": "14-04-2019",
      "sales": 42,
      "status": "Active"
    },
    {
      "id": "DL-1022510",
      "title": "Offer1",
      "shopName": "The Company Ltd",
      "startDate": "20-19-17",
      "endDate": "14-04-2019",
      "sales": 42,
      "status": "Active"
    },
    {
      "id": "DL-1022510",
      "title": "Offer1",
      "shopName": "The Company Ltd",
      "startDate": "20-19-17",
      "endDate": "14-04-2019",
      "sales": 42,
      "status": "Active"
    },
    {
      "id": "DL-1022510",
      "title": "Offer1",
      "shopName": "The Company Ltd",
      "startDate": "20-19-17",
      "endDate": "14-04-2019",
      "sales": 42,
      "status": "Active"
    },
    {
      "id": "DL-1022510",
      "title": "Offer1",
      "shopName": "The Company Ltd",
      "startDate": "20-19-17",
      "endDate": "14-04-2019",
      "sales": 42,
      "status": "Active"
    },
    {
      "id": "DL-1022510",
      "title": "Offer1",
      "shopName": "The Company Ltd",
      "startDate": "20-19-17",
      "endDate": "14-04-2019",
      "sales": 42,
      "status": "Active"
    },
    {
      "id": "DL-1022510",
      "title": "Offer1",
      "shopName": "The Company Ltd",
      "startDate": "20-19-17",
      "endDate": "14-04-2019",
      "sales": 42,
      "status": "Active"
    }
  ],
  "onHold": [
    {
      "id": "DL-1022510",
      "title": "Offer1",
      "shopName": "The Company Ltd",
      "startDate": "20-19-17",
      "endDate": "14-04-2019",
      "sales": 42,
      "status": "On Hold"
    },
    {
      "id": "DL-1022510",
      "title": "Offer1",
      "shopName": "The Company Ltd",
      "startDate": "20-19-17",
      "endDate": "14-04-2019",
      "sales": 42,
      "status": "On Hold"
    },
    {
      "id": "DL-1022510",
      "title": "Offer1",
      "shopName": "The Company Ltd",
      "startDate": "20-19-17",
      "endDate": "14-04-2019",
      "sales": 42,
      "status": "On Hold"
    },
    {
      "id": "DL-1022510",
      "title": "Offer1",
      "shopName": "The Company Ltd",
      "startDate": "20-19-17",
      "endDate": "14-04-2019",
      "sales": 42,
      "status": "On Hold"
    }
  ]
}